ST-558 Homework 6
…
Response [https://newsapi.org/v2/everything?q=technology&from=2024-09-16&sortBy=publishedAt&apiKey=be56f597af854b8a808b8664ddb8665f]
  Date: 2024-10-16 05:58
  Status: 200
  Content-Type: application/json; charset=utf-8
  Size: 94.8 kB

2. Parsing the API response

content_data <- content(response, as = "parsed", simplifyDataFrame = TRUE)
articles <- pluck(content_data, "articles")
articles_df <- as_tibble(articles)
print(articles_df)

# A tibble: 100 × 8
   source$id $name author title description url   urlToImage publishedAt content
   <chr>     <chr> <chr>  <chr> <chr>       <chr> <chr>      <chr>       <chr>  
 1 <NA>      Busi… "Reut… Key … "In one pl… http… https://b… 2024-10-15… "In on…
 2 the-time… The … "ET O… UGC … "UGC NET R… http… https://i… 2024-10-15… "Artif…
 3 <NA>      ETF … "Mark… Crit… "BOX (NYSE… http… https://w… 2024-10-15… "BOX (…
 4 <NA>      ETF … "Mark… LG D… "LG Displa… http… https://w… 2024-10-15… "LG Di…
 5 <NA>      Sams… "Sams… [Unf… "Anyone ca… http… https://i… 2024-10-15… "Anyon…
 6 <NA>      Forb… "Lanc… AI S… "A newly e… http… https://i… 2024-10-15… "Get u…
 7 <NA>      ETF … "Mark… Irid… "Iridium C… http… https://w… 2024-10-15… "Iridi…
 8 <NA>      ETF … "Mark… SBM … "SBM Offsh… http… https://w… 2024-10-15… "SBM O…
 9 <NA>      ETF … "Mark… Crit… "Robert Ha… http… https://w… 2024-10-15… "Rober…
10 <NA>      ETF … "Mark… Anal… "Pure Stor… http… https://w… 2024-10-15… "Pure …
# ℹ 90 more rows
…
  return(articles_df)
}

Testing function

topic <- "climate change"
from_date <- "2024-09-16"
apiKey <- 'be56f597af854b8a808b8664ddb8665f'
news_articles <- apiQueryFun(topic, from_date, api_key)
print(news_articles)

# A tibble: 100 × 8
   source$id $name author title description url   urlToImage publishedAt content
   <chr>     <chr> <chr>  <chr> <chr>       <chr> <chr>      <chr>       <chr>  
 1 <NA>      Sput… Mary … EU R… "Mercury a… http… https://c… 2024-10-15… "Get t…
 2 <NA>      NPR   The A… Migr… "Experts s… http… https://n… 2024-10-15… "ALBUQ…
 3 <NA>      Futu… Teri … Root… "Vineyards… http… https://k… 2024-10-15… "Dr Sm…
 4 <NA>      Busi… AP     King… "King Char… http… https://b… 2024-10-15… "King …
 5 <NA>      Arch… Nour … Fost… "Foster + … http… https://i… 2024-10-15… "Court…
 6 <NA>      WWD   Thoma… Tiff… "The progr… http… https://w… 2024-10-15… "Tiffa…
 7 <NA>      Futu… Decan… DWWA… "Waitrose … http… https://k… 2024-10-15… "Waitr…
 8 the-iris… The … Conor… We n… "They’re e… http… https://w… 2024-10-15… "It is…
 9 <NA>      The … The N… Is a… "In this e… http… https://w… 2024-10-15… "What …
10 <NA>      Spri… Matth… Dire… "This new … http… https://s… 2024-10-15… "Spott…
# ℹ 90 more rows

Grab the data two times

tech_news <- apiQueryFun("technology", "2024-09-16", 'be56f597af854b8a808b8664ddb8665f')
climate_news <- apiQueryFun("climate change", "2024-09-16", 'be56f597af854b8a808b8664ddb8665f')

4. Summarize name of the source for each article

library(dplyr)
library(purrr)
tech_news |>
  count(source$name)

# A tibble: 32 × 2
   `source$name`          n
   <chr>              <int>
 1 3dnews.ru              1
 2 BBC News               1
 3 Bernama.com            1
 4 Business Standard      6
 5 BusinessLine           1
 6 CNA                    1
 7 CNET                   1
 8 Chip.com.tr            1
 9 CoinDesk               1
10 ComputerWeekly.com     2
# ℹ 22 more rows
…
